<?xml version="1.0" encoding="utf-8"?>
<!-- Generated by IcoMoon.io -->
<!DOCTYPE svg PUBLIC "-//W3C//DTD SVG 1.1//EN" "http://www.w3.org/Graphics/SVG/1.1/DTD/svg11.dtd">
<svg version="1.1" xmlns="http://www.w3.org/2000/svg" xmlns:xlink="http://www.w3.org/1999/xlink" width="20" height="20" viewBox="0 0 20 20">
<path d="M1.5 14c-0.276 0-0.5-0.224-0.5-0.5v-3c0-0.276 0.224-0.5 0.5-0.5s0.5 0.224 0.5 0.5v3c0 0.276-0.224 0.5-0.5 0.5z" fill="#5b5b5b"></path>
<path d="M3.5 14c-0.276 0-0.5-0.224-0.5-0.5v-3c0-0.276 0.224-0.5 0.5-0.5s0.5 0.224 0.5 0.5v3c0 0.276-0.224 0.5-0.5 0.5z" fill="#5b5b5b"></path>
<path d="M5.5 14c-0.276 0-0.5-0.224-0.5-0.5v-3c0-0.276 0.224-0.5 0.5-0.5s0.5 0.224 0.5 0.5v3c0 0.276-0.224 0.5-0.5 0.5z" fill="#5b5b5b"></path>
<path d="M7.5 14c-0.276 0-0.5-0.224-0.5-0.5v-3c0-0.276 0.224-0.5 0.5-0.5s0.5 0.224 0.5 0.5v3c0 0.276-0.224 0.5-0.5 0.5z" fill="#5b5b5b"></path>
<path d="M19.5 18h-18c-0.827 0-1.5-0.673-1.5-1.5s0.673-1.5 1.5-1.5h18c0.276 0 0.5 0.224 0.5 0.5s-0.224 0.5-0.5 0.5h-18c-0.276 0-0.5 0.224-0.5 0.5s0.224 0.5 0.5 0.5h18c0.276 0 0.5 0.224 0.5 0.5s-0.224 0.5-0.5 0.5z" fill="#5b5b5b"></path>
<path d="M9.5 14c-0.276 0-0.5-0.224-0.5-0.5v-3c0-0.276 0.224-0.5 0.5-0.5s0.5 0.224 0.5 0.5v3c0 0.276-0.224 0.5-0.5 0.5z" fill="#5b5b5b"></path>
<path d="M9 9h-6c-1.654 0-3-1.346-3-3s1.346-3 3-3h0.5c0.276 0 0.5 0.224 0.5 0.5s-0.224 0.5-0.5 0.5c-0.276 0-0.5 0.224-0.5 0.5s0.224 0.5 0.5 0.5h5.5c1.103 0 2 0.897 2 2s-0.897 2-2 2zM2.020 4.257c-0.608 0.343-1.020 0.996-1.020 1.743 0 1.103 0.897 2 2 2h6c0.551 0 1-0.449 1-1s-0.449-1-1-1h-5.5c-0.827 0-1.5-0.673-1.5-1.5 0-0.083 0.007-0.164 0.020-0.243z" fill="#5b5b5b"></path>
</svg>
