<?xml version="1.0" encoding="utf-8"?>
<!-- Generated by IcoMoon.io -->
<!DOCTYPE svg PUBLIC "-//W3C//DTD SVG 1.1//EN" "http://www.w3.org/Graphics/SVG/1.1/DTD/svg11.dtd">
<svg version="1.1" xmlns="http://www.w3.org/2000/svg" xmlns:xlink="http://www.w3.org/1999/xlink" width="20" height="20" viewBox="0 0 20 20">
<path d="M16.5 6c-1.378 0-2.5-1.122-2.5-2.5 0-0.276-0.224-0.5-0.5-0.5s-0.5 0.224-0.5 0.5v12.399c-0.136-0.092-0.286-0.179-0.448-0.26-0.824-0.412-1.907-0.639-3.052-0.639s-2.228 0.227-3.052 0.639c-0.934 0.467-1.448 1.128-1.448 1.861s0.514 1.395 1.448 1.861c0.824 0.412 1.907 0.639 3.052 0.639s2.228-0.227 3.052-0.639c0.934-0.467 1.448-1.128 1.448-1.861v-11.553c0.636 0.649 1.522 1.053 2.5 1.053 1.378 0 2.5 1.122 2.5 2.5 0 0.276 0.224 0.5 0.5 0.5s0.5-0.224 0.5-0.5c0-1.93-1.57-3.5-3.5-3.5zM9.5 19c-2.003 0-3.5-0.792-3.5-1.5s1.497-1.5 3.5-1.5c2.003 0 3.5 0.792 3.5 1.5s-1.497 1.5-3.5 1.5z" fill="#5b5b5b"></path>
<path d="M10.5 13h-10c-0.276 0-0.5-0.224-0.5-0.5s0.224-0.5 0.5-0.5h10c0.276 0 0.5 0.224 0.5 0.5s-0.224 0.5-0.5 0.5z" fill="#5b5b5b"></path>
<path d="M10.5 10h-10c-0.276 0-0.5-0.224-0.5-0.5s0.224-0.5 0.5-0.5h10c0.276 0 0.5 0.224 0.5 0.5s-0.224 0.5-0.5 0.5z" fill="#5b5b5b"></path>
<path d="M10.5 7h-10c-0.276 0-0.5-0.224-0.5-0.5s0.224-0.5 0.5-0.5h10c0.276 0 0.5 0.224 0.5 0.5s-0.224 0.5-0.5 0.5z" fill="#5b5b5b"></path>
<path d="M10.5 4h-10c-0.276 0-0.5-0.224-0.5-0.5s0.224-0.5 0.5-0.5h10c0.276 0 0.5 0.224 0.5 0.5s-0.224 0.5-0.5 0.5z" fill="#5b5b5b"></path>
</svg>
