<?xml version="1.0" encoding="utf-8"?>
<!-- Generated by IcoMoon.io -->
<!DOCTYPE svg PUBLIC "-//W3C//DTD SVG 1.1//EN" "http://www.w3.org/Graphics/SVG/1.1/DTD/svg11.dtd">
<svg version="1.1" xmlns="http://www.w3.org/2000/svg" xmlns:xlink="http://www.w3.org/1999/xlink" width="20" height="20" viewBox="0 0 20 20">
<path d="M18.5 16c-0.082 0-0.165-0.020-0.242-0.063l-8.757-4.865-8.757 4.865c-0.241 0.134-0.546 0.047-0.68-0.194s-0.047-0.546 0.194-0.68l9-5c0.151-0.084 0.335-0.084 0.486 0l9 5c0.241 0.134 0.328 0.438 0.194 0.68-0.091 0.164-0.262 0.257-0.438 0.257z" fill="#5b5b5b"></path>
<path d="M18.5 13c-0.082 0-0.165-0.020-0.242-0.063l-8.757-4.865-8.757 4.865c-0.241 0.134-0.546 0.047-0.68-0.194s-0.047-0.546 0.194-0.68l9-5c0.151-0.084 0.335-0.084 0.486 0l9 5c0.241 0.134 0.328 0.438 0.194 0.68-0.091 0.164-0.262 0.257-0.438 0.257z" fill="#5b5b5b"></path>
<path d="M18.5 10c-0.082 0-0.165-0.020-0.242-0.063l-8.757-4.865-8.757 4.865c-0.241 0.134-0.546 0.047-0.68-0.194s-0.047-0.546 0.194-0.68l9-5c0.151-0.084 0.335-0.084 0.486 0l9 5c0.241 0.134 0.328 0.438 0.194 0.68-0.091 0.164-0.262 0.257-0.438 0.257z" fill="#5b5b5b"></path>
</svg>
