<?xml version="1.0" encoding="utf-8"?>
<!-- Generated by IcoMoon.io -->
<!DOCTYPE svg PUBLIC "-//W3C//DTD SVG 1.1//EN" "http://www.w3.org/Graphics/SVG/1.1/DTD/svg11.dtd">
<svg version="1.1" xmlns="http://www.w3.org/2000/svg" xmlns:xlink="http://www.w3.org/1999/xlink" width="20" height="20" viewBox="0 0 20 20">
<path d="M20.001 15.51c0-0.011-0-0.023-0.001-0.034-0.006-0.258-0.094-1.833-1.276-2.424-0.171-0.085-0.525-0.262-3.883-0.524-0.122-0.28-0.327-0.731-0.576-1.203-0.779-1.478-1.27-1.817-1.572-1.943-1.057-0.442-4.242-0.542-6.314-0.024-1.297 0.324-2.459 1.088-3.36 2.209-0.513 0.638-0.807 1.223-0.924 1.483-0.297 0.234-0.565 0.506-0.803 0.817-0.857 1.115-1.291 2.673-1.291 4.632 0 0.133 0.053 0.26 0.146 0.354s0.221 0.146 0.354 0.146l1.035-0c0.249-0 0.46-0.183 0.495-0.429 0.028-0.197 0.076-0.388 0.141-0.57 0.413 1.164 1.525 2 2.828 2s2.415-0.836 2.828-2c0.065 0.183 0.113 0.373 0.141 0.57 0.035 0.246 0.246 0.429 0.495 0.429l6.071 0c0.249 0 0.46-0.183 0.495-0.429 0.017-0.119 0.042-0.236 0.073-0.35 0.311 1.028 1.267 1.779 2.395 1.779 1.38 0 2.502-1.122 2.502-2.502 0-0.555-0.181-1.071-0.491-1.489 0.272-0.005 0.491-0.226 0.491-0.5zM6.621 10.329c1.914-0.479 4.898-0.353 5.686-0.024 0.038 0.016 0.39 0.192 1.069 1.48 0.122 0.23 0.233 0.458 0.328 0.66-0.605-0.042-1.285-0.086-2.050-0.132-3.094-0.186-6.104-0.312-6.134-0.313-0.007-0-0.014-0-0.021-0-0.621 0-1.194 0.072-1.717 0.215 0.583-0.73 1.502-1.552 2.839-1.886zM5 19c-1.103 0-2-0.897-2-2 0-0.082 0.006-0.163 0.015-0.244 0.534-0.471 1.232-0.756 1.985-0.756s1.451 0.285 1.985 0.756c0.010 0.081 0.015 0.162 0.015 0.244 0 1.103-0.897 2-2 2zM14.126 18l-5.253-0c-0.18-0.698-0.548-1.337-1.065-1.847-0.005-0.005-0.011-0.011-0.016-0.016-0.052-0.051-0.106-0.101-0.161-0.149-0.728-0.637-1.663-0.987-2.632-0.987s-1.903 0.351-2.632 0.987c-0.043 0.038-0.085 0.076-0.126 0.116-0.029 0.023-0.055 0.048-0.078 0.077-0.502 0.505-0.861 1.134-1.037 1.82h-0.116c0.105-2.387 1.013-4.995 4.479-5 0.197 0.008 3.083 0.131 6.058 0.309 5.681 0.34 6.588 0.575 6.728 0.638 0.398 0.199 0.577 0.677 0.658 1.053l-0.934 0c-0.1 0-0.2 0.004-0.299 0.011-0.006 0-0.012 0.001-0.018 0.001-0.651 0.052-1.278 0.261-1.826 0.61-0.006 0.003-0.011 0.007-0.017 0.011-0.165 0.106-0.323 0.224-0.472 0.354-0.61 0.534-1.042 1.237-1.242 2.012zM17.498 19c-0.828 0-1.502-0.674-1.502-1.502 0-0.393 0.149-0.76 0.419-1.041 0.388-0.243 0.833-0.4 1.307-0.444 0.732 0.109 1.278 0.739 1.278 1.485 0 0.828-0.674 1.502-1.502 1.502z" fill="#5b5b5b"></path>
</svg>
