<?xml version="1.0" encoding="utf-8"?>
<!-- Generated by IcoMoon.io -->
<!DOCTYPE svg PUBLIC "-//W3C//DTD SVG 1.1//EN" "http://www.w3.org/Graphics/SVG/1.1/DTD/svg11.dtd">
<svg version="1.1" xmlns="http://www.w3.org/2000/svg" xmlns:xlink="http://www.w3.org/1999/xlink" width="20" height="20" viewBox="0 0 20 20">
<path d="M9.514 19.996c-0.005 0-0.010 0-0.015 0-3.208-0.001-7.299-0.435-8.275-1.079-0.117-0.077-0.197-0.201-0.219-0.339s0.016-0.281 0.103-0.39l2-2.5c0.172-0.216 0.487-0.251 0.703-0.078s0.251 0.487 0.078 0.703l-1.579 1.974c1.207 0.334 4.044 0.708 7.189 0.709 0.005 0 0.010 0 0.014 0 1.689 0 3.464-0.109 5-0.306 0.991-0.127 1.69-0.268 2.138-0.391l-3.31-3.723c-0.118-0.133-0.157-0.318-0.102-0.487s0.195-0.296 0.368-0.334c0.546-0.12 0.907-0.248 1.143-0.359l-3.216-3.752c-0.111-0.13-0.148-0.307-0.099-0.47s0.179-0.29 0.343-0.336c0.378-0.107 0.702-0.238 0.961-0.389l-0.596-0.596c-0.195-0.195-0.195-0.512 0-0.707s0.512-0.195 0.707 0l1 1c0.195 0.195 0.195 0.512 0 0.707-0.272 0.272-0.634 0.505-1.081 0.696l3.107 3.625c0.17 0.198 0.159 0.494-0.026 0.679-0.261 0.261-0.665 0.48-1.225 0.663l3.245 3.651c0.096 0.108 0.141 0.253 0.122 0.396s-0.098 0.272-0.219 0.352c-0.558 0.372-2.013 0.622-3.136 0.766-1.577 0.203-3.398 0.314-5.127 0.314z" fill="#5b5b5b"></path>
<path d="M5.5 11.5c-0.123 0-0.246-0.045-0.343-0.136-0.201-0.189-0.21-0.506-0.021-0.707l1.057-1.122c-0.431-0.188-0.782-0.416-1.047-0.681-0.195-0.195-0.195-0.512 0-0.707l1-1c0.195-0.195 0.512-0.195 0.707 0s0.195 0.512 0 0.707l-0.596 0.596c0.259 0.151 0.583 0.282 0.961 0.389 0.168 0.047 0.3 0.179 0.346 0.348s0.002 0.349-0.118 0.476l-1.584 1.681c-0.098 0.104-0.231 0.157-0.364 0.157z" fill="#5b5b5b"></path>
<path d="M11.5 7c-0.076 0-0.153-0.017-0.223-0.053l-1.776-0.888-1.776 0.888c-0.175 0.087-0.384 0.065-0.536-0.057s-0.22-0.322-0.172-0.511l0.442-1.769-1.357-1.81c-0.114-0.152-0.132-0.354-0.047-0.524s0.258-0.276 0.447-0.276h1.691l0.862-1.724c0.085-0.169 0.258-0.276 0.447-0.276s0.363 0.107 0.447 0.276l0.862 1.724h1.691c0.189 0 0.363 0.107 0.447 0.276s0.066 0.372-0.047 0.524l-1.357 1.81 0.442 1.769c0.047 0.189-0.020 0.389-0.172 0.511-0.091 0.073-0.201 0.11-0.313 0.11zM9.5 5c0.077 0 0.153 0.018 0.224 0.053l1.028 0.514-0.236-0.945c-0.037-0.146-0.005-0.301 0.085-0.421l0.9-1.2h-1c-0.189 0-0.363-0.107-0.447-0.276l-0.553-1.106-0.553 1.106c-0.085 0.169-0.258 0.276-0.447 0.276h-1l0.9 1.2c0.090 0.12 0.122 0.275 0.085 0.421l-0.236 0.945 1.028-0.514c0.070-0.035 0.147-0.053 0.224-0.053z" fill="#5b5b5b"></path>
<path d="M11.5 18c-0.827 0-1.5-0.673-1.5-1.5s0.673-1.5 1.5-1.5 1.5 0.673 1.5 1.5-0.673 1.5-1.5 1.5zM11.5 16c-0.276 0-0.5 0.224-0.5 0.5s0.224 0.5 0.5 0.5 0.5-0.224 0.5-0.5-0.224-0.5-0.5-0.5z" fill="#5b5b5b"></path>
<path d="M7 16.5c0 0.276-0.224 0.5-0.5 0.5s-0.5-0.224-0.5-0.5c0-0.276 0.224-0.5 0.5-0.5s0.5 0.224 0.5 0.5z" fill="#5b5b5b"></path>
<path d="M12 12.5c0 0.276-0.224 0.5-0.5 0.5s-0.5-0.224-0.5-0.5c0-0.276 0.224-0.5 0.5-0.5s0.5 0.224 0.5 0.5z" fill="#5b5b5b"></path>
<path d="M10 9.5c0 0.276-0.224 0.5-0.5 0.5s-0.5-0.224-0.5-0.5c0-0.276 0.224-0.5 0.5-0.5s0.5 0.224 0.5 0.5z" fill="#5b5b5b"></path>
<path d="M4.5 15c-0.827 0-1.5-0.673-1.5-1.5s0.673-1.5 1.5-1.5 1.5 0.673 1.5 1.5-0.673 1.5-1.5 1.5zM4.5 13c-0.276 0-0.5 0.224-0.5 0.5s0.224 0.5 0.5 0.5 0.5-0.224 0.5-0.5-0.224-0.5-0.5-0.5z" fill="#5b5b5b"></path>
<path d="M8.5 15c-0.276 0-0.5-0.224-0.5-0.5s-0.224-0.5-0.5-0.5c-0.276 0-0.5-0.224-0.5-0.5s0.224-0.5 0.5-0.5c0.276 0 0.5-0.224 0.5-0.5s0.224-0.5 0.5-0.5 0.5 0.224 0.5 0.5c0 0.276 0.224 0.5 0.5 0.5s0.5 0.224 0.5 0.5-0.224 0.5-0.5 0.5c-0.276 0-0.5 0.224-0.5 0.5s-0.224 0.5-0.5 0.5z" fill="#5b5b5b"></path>
</svg>
