<?xml version="1.0" encoding="utf-8"?>
<!-- Generated by IcoMoon.io -->
<!DOCTYPE svg PUBLIC "-//W3C//DTD SVG 1.1//EN" "http://www.w3.org/Graphics/SVG/1.1/DTD/svg11.dtd">
<svg version="1.1" xmlns="http://www.w3.org/2000/svg" xmlns:xlink="http://www.w3.org/1999/xlink" width="20" height="20" viewBox="0 0 20 20">
<path d="M10.5 16c-0.827 0-1.5-0.673-1.5-1.5s0.673-1.5 1.5-1.5c0.827 0 1.5 0.673 1.5 1.5s-0.673 1.5-1.5 1.5zM10.5 14c-0.276 0-0.5 0.224-0.5 0.5s0.224 0.5 0.5 0.5 0.5-0.224 0.5-0.5-0.224-0.5-0.5-0.5z" fill="#5b5b5b"></path>
<path d="M13.947 12.968c-0.171 0-0.338-0.088-0.431-0.246-0.188-0.318-0.424-0.603-0.701-0.848-0.207-0.183-0.227-0.499-0.044-0.706s0.499-0.227 0.706-0.044c0.356 0.314 0.659 0.681 0.9 1.089 0.141 0.238 0.062 0.544-0.176 0.685-0.080 0.047-0.167 0.070-0.254 0.070z" fill="#5b5b5b"></path>
<path d="M11.5 11.126c-0.041 0-0.083-0.005-0.125-0.016-0.284-0.073-0.579-0.11-0.876-0.11-0.276 0-0.5-0.224-0.5-0.5s0.224-0.5 0.5-0.5c0.381 0 0.759 0.048 1.125 0.142 0.267 0.069 0.428 0.341 0.36 0.609-0.058 0.226-0.261 0.376-0.484 0.376z" fill="#5b5b5b"></path>
<path d="M16.107 10.808c-0.152 0-0.302-0.069-0.401-0.2-0.508-0.678-1.133-1.243-1.857-1.68-0.237-0.142-0.313-0.45-0.17-0.686s0.45-0.313 0.686-0.17c0.835 0.503 1.556 1.155 2.141 1.937 0.166 0.221 0.121 0.534-0.1 0.7-0.090 0.067-0.195 0.1-0.299 0.1z" fill="#5b5b5b"></path>
<path d="M12.001 8.161c-0.035 0-0.071-0.004-0.107-0.012-0.455-0.099-0.923-0.15-1.393-0.15-0.276 0-0.5-0.224-0.5-0.5s0.224-0.5 0.5-0.5c0.542 0 1.082 0.058 1.607 0.173 0.27 0.059 0.441 0.325 0.382 0.595-0.051 0.234-0.258 0.393-0.488 0.393z" fill="#5b5b5b"></path>
<path d="M18.243 8.671c-0.145 0-0.288-0.063-0.387-0.183-0.838-1.024-1.904-1.88-3.081-2.474-0.247-0.124-0.346-0.425-0.221-0.672s0.425-0.346 0.672-0.221c1.32 0.666 2.466 1.586 3.405 2.734 0.175 0.214 0.143 0.529-0.070 0.704-0.093 0.076-0.205 0.113-0.316 0.113z" fill="#5b5b5b"></path>
<path d="M12.501 5.2c-0.033 0-0.066-0.003-0.1-0.010-1.243-0.252-2.558-0.252-3.801-0-0.271 0.055-0.535-0.12-0.589-0.391s0.12-0.535 0.391-0.589c1.373-0.279 2.826-0.279 4.199 0 0.271 0.055 0.446 0.319 0.391 0.589-0.048 0.237-0.257 0.401-0.49 0.401z" fill="#5b5b5b"></path>
<path d="M4.5 14c-2.481 0-4.5-2.019-4.5-4.5s2.019-4.5 4.5-4.5 4.5 2.019 4.5 4.5-2.019 4.5-4.5 4.5zM4.5 6c-1.93 0-3.5 1.57-3.5 3.5s1.57 3.5 3.5 3.5 3.5-1.57 3.5-3.5-1.57-3.5-3.5-3.5z" fill="#5b5b5b"></path>
<path d="M4.5 10c0 0 0 0 0 0-0.276 0-0.5-0.224-0.5-0.5l0-2c0-0.276 0.224-0.5 0.5-0.5 0 0 0 0 0 0 0.276 0 0.5 0.224 0.5 0.5l-0 2c0 0.276-0.224 0.5-0.5 0.5z" fill="#5b5b5b"></path>
<path d="M4.5 12c-0.132 0-0.26-0.053-0.353-0.147s-0.147-0.222-0.147-0.353 0.053-0.261 0.147-0.353c0.093-0.093 0.222-0.147 0.353-0.147s0.26 0.053 0.353 0.147c0.093 0.093 0.147 0.222 0.147 0.353s-0.053 0.261-0.147 0.353c-0.093 0.093-0.222 0.147-0.353 0.147z" fill="#5b5b5b"></path>
</svg>
