<?xml version="1.0" encoding="utf-8"?>
<!-- Generated by IcoMoon.io -->
<!DOCTYPE svg PUBLIC "-//W3C//DTD SVG 1.1//EN" "http://www.w3.org/Graphics/SVG/1.1/DTD/svg11.dtd">
<svg version="1.1" xmlns="http://www.w3.org/2000/svg" xmlns:xlink="http://www.w3.org/1999/xlink" width="20" height="20" viewBox="0 0 20 20">
<path d="M0 8.5v-8c0-0.167 0.084-0.324 0.223-0.417s0.316-0.109 0.471-0.044l19 8c0.219 0.092 0.343 0.326 0.296 0.56s-0.252 0.401-0.49 0.401h-19c-0.276 0-0.5-0.224-0.5-0.5zM1 1.253v6.747h16.024l-16.024-6.747z" fill="#5b5b5b"></path>
<path d="M0 19.5v-8c0-0.276 0.224-0.5 0.5-0.5h19c0.238 0 0.443 0.168 0.49 0.401s-0.077 0.467-0.296 0.56l-19 8c-0.154 0.065-0.331 0.048-0.471-0.044s-0.223-0.249-0.223-0.417zM1 12v6.747l16.024-6.747h-16.024z" fill="#5b5b5b"></path>
</svg>
