<?xml version="1.0" encoding="utf-8"?>
<!-- Generated by IcoMoon.io -->
<!DOCTYPE svg PUBLIC "-//W3C//DTD SVG 1.1//EN" "http://www.w3.org/Graphics/SVG/1.1/DTD/svg11.dtd">
<svg version="1.1" xmlns="http://www.w3.org/2000/svg" xmlns:xlink="http://www.w3.org/1999/xlink" width="20" height="20" viewBox="0 0 20 20">
<path d="M19.5 20c0.276 0 0.5-0.224 0.5-0.5v-19c0-0.276-0.224-0.5-0.5-0.5s-0.5 0.224-0.5 0.5v19c0 0.276 0.224 0.5 0.5 0.5z" fill="#5b5b5b"></path>
<path d="M7 7.5v-4c0-0.827 0.673-1.5 1.5-1.5h8c0.827 0 1.5 0.673 1.5 1.5v4c0 0.827-0.673 1.5-1.5 1.5h-8c-0.827 0-1.5-0.673-1.5-1.5zM8.5 3c-0.276 0-0.5 0.224-0.5 0.5v4c0 0.276 0.224 0.5 0.5 0.5h8c0.276 0 0.5-0.224 0.5-0.5v-4c0-0.276-0.224-0.5-0.5-0.5h-8z" fill="#5b5b5b"></path>
<path d="M1 16.5v-4c0-0.827 0.673-1.5 1.5-1.5h14c0.827 0 1.5 0.673 1.5 1.5v4c0 0.827-0.673 1.5-1.5 1.5h-14c-0.827 0-1.5-0.673-1.5-1.5zM2.5 12c-0.276 0-0.5 0.224-0.5 0.5v4c0 0.276 0.224 0.5 0.5 0.5h14c0.276 0 0.5-0.224 0.5-0.5v-4c0-0.276-0.224-0.5-0.5-0.5h-14z" fill="#5b5b5b"></path>
</svg>
