<?xml version="1.0" encoding="utf-8"?>
<!-- Generated by IcoMoon.io -->
<!DOCTYPE svg PUBLIC "-//W3C//DTD SVG 1.1//EN" "http://www.w3.org/Graphics/SVG/1.1/DTD/svg11.dtd">
<svg version="1.1" xmlns="http://www.w3.org/2000/svg" xmlns:xlink="http://www.w3.org/1999/xlink" width="20" height="20" viewBox="0 0 20 20">
<path d="M19.5 16h-19c-0.276 0-0.5-0.224-0.5-0.5v-3c0-0.276 0.224-0.5 0.5-0.5 0.827 0 1.5-0.673 1.5-1.5s-0.673-1.5-1.5-1.5c-0.276 0-0.5-0.224-0.5-0.5v-3c0-0.276 0.224-0.5 0.5-0.5h19c0.276 0 0.5 0.224 0.5 0.5v3c0 0.276-0.224 0.5-0.5 0.5-0.827 0-1.5 0.673-1.5 1.5s0.673 1.5 1.5 1.5c0.276 0 0.5 0.224 0.5 0.5v3c0 0.276-0.224 0.5-0.5 0.5zM1 15h18v-2.050c-1.14-0.232-2-1.242-2-2.45s0.86-2.217 2-2.45v-2.050h-18v2.050c1.14 0.232 2 1.242 2 2.45s-0.86 2.217-2 2.45v2.050z" fill="#815087"></path>
<path d="M15.5 14h-11c-0.276 0-0.5-0.224-0.5-0.5v-6c0-0.276 0.224-0.5 0.5-0.5h11c0.276 0 0.5 0.224 0.5 0.5v6c0 0.276-0.224 0.5-0.5 0.5zM5 13h10v-5h-10v5z" fill="#815087"></path>
</svg>
