<?xml version="1.0" encoding="utf-8"?>
<!-- Generated by IcoMoon.io -->
<!DOCTYPE svg PUBLIC "-//W3C//DTD SVG 1.1//EN" "http://www.w3.org/Graphics/SVG/1.1/DTD/svg11.dtd">
<svg version="1.1" xmlns="http://www.w3.org/2000/svg" xmlns:xlink="http://www.w3.org/1999/xlink" width="20" height="20" viewBox="0 0 20 20">
<path d="M19.923 19.233c-0.186-0.328-2.39-4.199-5.077-8.020-1.649-2.345-3.157-4.217-4.482-5.563-1.755-1.783-3.182-2.649-4.364-2.649-0.35 0-0.687 0.052-1 0.153v-2.653c0-0.276-0.224-0.5-0.5-0.5s-0.5 0.224-0.5 0.5v1.926l-1.051-2.145c-0.122-0.248-0.421-0.351-0.669-0.229s-0.351 0.421-0.229 0.669l1.278 2.609-2.609-1.278c-0.248-0.121-0.547-0.019-0.669 0.229s-0.019 0.547 0.229 0.669l2.145 1.051h-1.925c-0.276 0-0.5 0.224-0.5 0.5s0.224 0.5 0.5 0.5h2.655c-0.102 0.314-0.155 0.651-0.155 1 0 1.182 0.867 2.609 2.649 4.364 1.347 1.326 3.218 2.834 5.563 4.482 3.975 2.795 8.002 5.067 8.042 5.089 0.077 0.043 0.161 0.064 0.245 0.064 0.003 0 0.005 0 0.008-0 0.273-0.004 0.493-0.226 0.493-0.5 0-0.098-0.028-0.19-0.077-0.267zM11.788 14.028c-1.004-0.706-1.882-1.358-2.649-1.96l0.715-0.715c0.195-0.195 0.195-0.512 0-0.707s-0.512-0.195-0.707 0l-0.792 0.792c-3.709-3.050-4.355-4.677-4.355-5.438 0-1.178 0.822-2 2-2 0.467 0 1.259 0.243 2.506 1.286l-1.36 1.36c-0.195 0.195-0.195 0.512 0 0.707 0.098 0.098 0.226 0.146 0.354 0.146s0.256-0.049 0.354-0.146l1.397-1.397c1.215 1.164 2.779 2.989 4.774 5.826 0.276 0.393 0.547 0.786 0.811 1.176l-0.689 0.689c-0.195 0.195-0.195 0.512 0 0.707 0.098 0.098 0.226 0.146 0.354 0.146s0.256-0.049 0.354-0.146l0.549-0.549c1.1 1.663 2.048 3.205 2.704 4.302-1.532-0.915-3.934-2.401-6.319-4.078z" fill="#815087"></path>
</svg>
