<?xml version="1.0" encoding="utf-8"?>
<!-- Generated by IcoMoon.io -->
<!DOCTYPE svg PUBLIC "-//W3C//DTD SVG 1.1//EN" "http://www.w3.org/Graphics/SVG/1.1/DTD/svg11.dtd">
<svg version="1.1" xmlns="http://www.w3.org/2000/svg" xmlns:xlink="http://www.w3.org/1999/xlink" width="20" height="20" viewBox="0 0 20 20">
<path d="M9 4.5c0 0.276-0.224 0.5-0.5 0.5s-0.5-0.224-0.5-0.5c0-0.276 0.224-0.5 0.5-0.5s0.5 0.224 0.5 0.5z" fill="#815087"></path>
<path d="M11 6.5c0 0.276-0.224 0.5-0.5 0.5s-0.5-0.224-0.5-0.5c0-0.276 0.224-0.5 0.5-0.5s0.5 0.224 0.5 0.5z" fill="#815087"></path>
<path d="M11 3.5c0 0.276-0.224 0.5-0.5 0.5s-0.5-0.224-0.5-0.5c0-0.276 0.224-0.5 0.5-0.5s0.5 0.224 0.5 0.5z" fill="#815087"></path>
<path d="M9 7.5c0 0.276-0.224 0.5-0.5 0.5s-0.5-0.224-0.5-0.5c0-0.276 0.224-0.5 0.5-0.5s0.5 0.224 0.5 0.5z" fill="#815087"></path>
<path d="M18 6.5c0 0.276-0.224 0.5-0.5 0.5s-0.5-0.224-0.5-0.5c0-0.276 0.224-0.5 0.5-0.5s0.5 0.224 0.5 0.5z" fill="#815087"></path>
<path d="M4 7.5c0 0.276-0.224 0.5-0.5 0.5s-0.5-0.224-0.5-0.5c0-0.276 0.224-0.5 0.5-0.5s0.5 0.224 0.5 0.5z" fill="#815087"></path>
<path d="M11 10.5c0 0.276-0.224 0.5-0.5 0.5s-0.5-0.224-0.5-0.5c0-0.276 0.224-0.5 0.5-0.5s0.5 0.224 0.5 0.5z" fill="#815087"></path>
<path d="M17.5 3c-1.378 0-2.5 1.122-2.5 2.5v0.5h-0.5c-0.276 0-0.5 0.224-0.5 0.5s0.224 0.5 0.5 0.5h0.5v0.5c0 0.276-0.224 0.5-0.5 0.5h-1.5v-4h0.5c0.276 0 0.5-0.224 0.5-0.5s-0.224-0.5-0.5-0.5h-0.536c-0.243-1.694-1.704-3-3.464-3-1.93 0-3.5 1.57-3.5 3.5v2.5h-0.5c-0.276 0-0.5-0.224-0.5-0.5v-1.5c0-1.103-0.897-2-2-2s-2 0.897-2 2v1h-0.5c-0.276 0-0.5 0.224-0.5 0.5s0.224 0.5 0.5 0.5h0.5v2c0 1.103 0.897 2 2 2h3v1h-0.5c-0.276 0-0.5 0.224-0.5 0.5s0.224 0.5 0.5 0.5h0.5v1.277c-0.459 0.085-0.841 0.187-1.138 0.303-0.552 0.216-0.841 0.512-0.86 0.88-0.001 0.009-0.001 0.019-0.001 0.028-0 0.004-0.001 0.008-0.001 0.012s0 0.006 0 0.010c0 0.007 0 0.015 0.001 0.023 0.004 0.087 0.021 0.168 0.052 0.243l0.95 3.801c0.070 0.747 1.176 1.024 1.547 1.117 0.794 0.198 1.842 0.308 2.95 0.308s2.156-0.109 2.95-0.308c0.371-0.093 1.476-0.369 1.547-1.117l0.95-3.801c0.030-0.075 0.048-0.156 0.052-0.243 0.001-0.007 0.001-0.015 0.001-0.022 0-0.003 0-0.006 0-0.010s-0.001-0.008-0.001-0.012-0.001-0.019-0.001-0.028c-0.019-0.368-0.308-0.664-0.86-0.88-0.297-0.116-0.679-0.218-1.138-0.303v-1.277h4.5c1.378 0 2.5-1.122 2.5-2.5v-4c0-1.378-1.122-2.5-2.5-2.5zM6 14.296v0.409c-0.347-0.072-0.585-0.144-0.744-0.204 0.16-0.061 0.397-0.133 0.744-0.204zM11.946 18.782c-0.682 0.141-1.55 0.218-2.446 0.218s-1.764-0.078-2.446-0.218c-0.671-0.139-0.971-0.299-1.062-0.373l-0.712-2.848c0.193 0.054 0.393 0.098 0.586 0.137 0.976 0.195 2.266 0.303 3.634 0.303s2.658-0.107 3.634-0.303c0.193-0.039 0.393-0.083 0.586-0.137l-0.712 2.848c-0.091 0.074-0.391 0.235-1.062 0.373zM13.744 14.5c-0.16 0.060-0.397 0.132-0.744 0.204v-0.409c0.347 0.072 0.585 0.144 0.744 0.204zM19 9.5c0 0.827-0.673 1.5-1.5 1.5h-5c-0.276 0-0.5 0.224-0.5 0.5v3.362c-0.749 0.089-1.614 0.138-2.5 0.138s-1.751-0.048-2.5-0.138v-5.362c0-0.276-0.224-0.5-0.5-0.5h-3.5c-0.551 0-1-0.449-1-1v-4c0-0.551 0.449-1 1-1s1 0.449 1 1v1.5c0 0.827 0.673 1.5 1.5 1.5h1c0.276 0 0.5-0.224 0.5-0.5v-3c0-1.378 1.122-2.5 2.5-2.5s2.5 1.122 2.5 2.5v5c0 0.276 0.224 0.5 0.5 0.5h2c0.827 0 1.5-0.673 1.5-1.5v-2c0-0.827 0.673-1.5 1.5-1.5s1.5 0.673 1.5 1.5v4z" fill="#815087"></path>
</svg>
