<?xml version="1.0" encoding="utf-8"?>
<!-- Generated by IcoMoon.io -->
<!DOCTYPE svg PUBLIC "-//W3C//DTD SVG 1.1//EN" "http://www.w3.org/Graphics/SVG/1.1/DTD/svg11.dtd">
<svg version="1.1" xmlns="http://www.w3.org/2000/svg" xmlns:xlink="http://www.w3.org/1999/xlink" width="20" height="20" viewBox="0 0 20 20">
<path d="M5.5 17.5c-0.128 0-0.256-0.049-0.354-0.146l-5-5c-0.195-0.195-0.195-0.512 0-0.707s0.512-0.195 0.707 0l4.646 4.646 13.646-13.646c0.195-0.195 0.512-0.195 0.707 0s0.195 0.512 0 0.707l-14 14c-0.098 0.098-0.226 0.146-0.354 0.146z" fill="#815087"></path>
</svg>
