<?xml version="1.0" encoding="utf-8"?>
<!-- Generated by IcoMoon.io -->
<!DOCTYPE svg PUBLIC "-//W3C//DTD SVG 1.1//EN" "http://www.w3.org/Graphics/SVG/1.1/DTD/svg11.dtd">
<svg version="1.1" xmlns="http://www.w3.org/2000/svg" xmlns:xlink="http://www.w3.org/1999/xlink" width="20" height="20" viewBox="0 0 20 20">
<path d="M7.5 3c-0.276 0-0.5 0.224-0.5 0.5v2.793l-6.146-6.146c-0.195-0.195-0.512-0.195-0.707 0s-0.195 0.512 0 0.707l6.146 6.146h-2.793c-0.276 0-0.5 0.224-0.5 0.5s0.224 0.5 0.5 0.5h4c0.276 0 0.5-0.224 0.5-0.5v-4c0-0.276-0.224-0.5-0.5-0.5z" fill="#815087"></path>
<path d="M19.853 0.146c-0.195-0.195-0.512-0.195-0.707 0l-6.146 6.146v-2.793c0-0.276-0.224-0.5-0.5-0.5s-0.5 0.224-0.5 0.5v4c0 0.276 0.224 0.5 0.5 0.5h4c0.276 0 0.5-0.224 0.5-0.5s-0.224-0.5-0.5-0.5h-2.793l6.146-6.146c0.195-0.195 0.195-0.512 0-0.707z" fill="#815087"></path>
<path d="M7.5 12h-4c-0.276 0-0.5 0.224-0.5 0.5s0.224 0.5 0.5 0.5h2.793l-6.146 6.147c-0.195 0.195-0.195 0.512 0 0.707 0.098 0.098 0.226 0.146 0.354 0.146s0.256-0.049 0.354-0.147l6.146-6.146v2.793c0 0.276 0.224 0.5 0.5 0.5s0.5-0.224 0.5-0.5v-4c0-0.276-0.224-0.5-0.5-0.5z" fill="#815087"></path>
<path d="M19.853 19.147l-6.146-6.147h2.793c0.276 0 0.5-0.224 0.5-0.5s-0.224-0.5-0.5-0.5h-4c-0.276 0-0.5 0.224-0.5 0.5v4c0 0.276 0.224 0.5 0.5 0.5s0.5-0.224 0.5-0.5v-2.793l6.147 6.147c0.098 0.098 0.226 0.146 0.353 0.146s0.256-0.049 0.353-0.147c0.195-0.195 0.195-0.512 0-0.707z" fill="#815087"></path>
</svg>
