<?xml version="1.0" encoding="utf-8"?>
<!-- Generated by IcoMoon.io -->
<!DOCTYPE svg PUBLIC "-//W3C//DTD SVG 1.1//EN" "http://www.w3.org/Graphics/SVG/1.1/DTD/svg11.dtd">
<svg version="1.1" xmlns="http://www.w3.org/2000/svg" xmlns:xlink="http://www.w3.org/1999/xlink" width="20" height="20" viewBox="0 0 20 20">
<path d="M9.5 20c-2.538 0-4.923-0.988-6.718-2.782s-2.782-4.18-2.782-6.717c0-2.538 0.988-4.923 2.782-6.718s4.18-2.783 6.718-2.783c2.538 0 4.923 0.988 6.718 2.783s2.782 4.18 2.782 6.718-0.988 4.923-2.782 6.717c-1.794 1.794-4.18 2.782-6.718 2.782zM9.5 2c-4.687 0-8.5 3.813-8.5 8.5s3.813 8.5 8.5 8.5c4.687 0 8.5-3.813 8.5-8.5s-3.813-8.5-8.5-8.5z" fill="#815087"></path>
<path d="M8.5 15c-0.13 0-0.258-0.051-0.354-0.147l-4-4c-0.195-0.195-0.195-0.512 0-0.707l4-4c0.143-0.143 0.358-0.186 0.545-0.108s0.309 0.26 0.309 0.462v8c0 0.202-0.122 0.385-0.309 0.462-0.062 0.026-0.127 0.038-0.191 0.038zM5.207 10.5l2.793 2.793v-5.586l-2.793 2.793z" fill="#815087"></path>
<path d="M13.5 15c-0.13 0-0.258-0.051-0.354-0.147l-4-4c-0.195-0.195-0.195-0.512 0-0.707l4-4c0.143-0.143 0.358-0.186 0.545-0.108s0.309 0.26 0.309 0.462v8c0 0.202-0.122 0.385-0.309 0.462-0.062 0.026-0.127 0.038-0.191 0.038zM10.207 10.5l2.793 2.793v-5.586l-2.793 2.793z" fill="#815087"></path>
</svg>
