<?xml version="1.0" encoding="utf-8"?>
<!-- Generated by IcoMoon.io -->
<!DOCTYPE svg PUBLIC "-//W3C//DTD SVG 1.1//EN" "http://www.w3.org/Graphics/SVG/1.1/DTD/svg11.dtd">
<svg version="1.1" xmlns="http://www.w3.org/2000/svg" xmlns:xlink="http://www.w3.org/1999/xlink" width="20" height="20" viewBox="0 0 20 20">
<path d="M16 7h1v1h-1v-1z" fill="#815087"></path>
<path d="M16 19h1v1h-1v-1z" fill="#815087"></path>
<path d="M14 19h1v1h-1v-1z" fill="#815087"></path>
<path d="M12 19h1v1h-1v-1z" fill="#815087"></path>
<path d="M10 19h1v1h-1v-1z" fill="#815087"></path>
<path d="M8 19h1v1h-1v-1z" fill="#815087"></path>
<path d="M18 15h1v1h-1v-1z" fill="#815087"></path>
<path d="M18 13h1v1h-1v-1z" fill="#815087"></path>
<path d="M18 17h1v1h-1v-1z" fill="#815087"></path>
<path d="M18 9h1v1h-1v-1z" fill="#815087"></path>
<path d="M18 11h1v1h-1v-1z" fill="#815087"></path>
<path d="M6 17h1v1h-1v-1z" fill="#815087"></path>
<path d="M14 7h1v1h-1v-1z" fill="#815087"></path>
<path d="M0 9h1v1h-1v-1z" fill="#815087"></path>
<path d="M0 5h1v1h-1v-1z" fill="#815087"></path>
<path d="M0 3h1v1h-1v-1z" fill="#815087"></path>
<path d="M0 11h1v1h-1v-1z" fill="#815087"></path>
<path d="M0 7h1v1h-1v-1z" fill="#815087"></path>
<path d="M12 3h1v1h-1v-1z" fill="#815087"></path>
<path d="M12 5h1v1h-1v-1z" fill="#815087"></path>
<path d="M4 1h1v1h-1v-1z" fill="#815087"></path>
<path d="M2 1h1v1h-1v-1z" fill="#815087"></path>
<path d="M6 1h1v1h-1v-1z" fill="#815087"></path>
<path d="M10 1h1v1h-1v-1z" fill="#815087"></path>
<path d="M8 1h1v1h-1v-1z" fill="#815087"></path>
<path d="M4 13h1v1h-1v-1z" fill="#815087"></path>
<path d="M2 13h1v1h-1v-1z" fill="#815087"></path>
<path d="M7.5 7c-0.827 0-1.5 0.673-1.5 1.5v5.5h5.5c0.827 0 1.5-0.673 1.5-1.5v-5.5h-5.5zM12 12.5c0 0.276-0.224 0.5-0.5 0.5h-4.5v-4.5c0-0.276 0.224-0.5 0.5-0.5h4.5v4.5z" fill="#815087"></path>
<path d="M6 15h1v1h-1v-1z" fill="#815087"></path>
<path d="M18 7h1v1h-1v-1z" fill="#815087"></path>
<path d="M18 19h1v1h-1v-1z" fill="#815087"></path>
<path d="M0 13h1v1h-1v-1z" fill="#815087"></path>
<path d="M0 1h1v1h-1v-1z" fill="#815087"></path>
<path d="M12 1h1v1h-1v-1z" fill="#815087"></path>
<path d="M6 19h1v1h-1v-1z" fill="#815087"></path>
</svg>
