<?xml version="1.0" encoding="utf-8"?>
<!-- Generated by IcoMoon.io -->
<!DOCTYPE svg PUBLIC "-//W3C//DTD SVG 1.1//EN" "http://www.w3.org/Graphics/SVG/1.1/DTD/svg11.dtd">
<svg version="1.1" xmlns="http://www.w3.org/2000/svg" xmlns:xlink="http://www.w3.org/1999/xlink" width="20" height="20" viewBox="0 0 20 20">
<path d="M14 4.5c0-0.276-0.224-0.5-0.5-0.5s-0.5 0.224-0.5 0.5c0 0.276 0.224 0.5 0.5 0.5s0.5-0.224 0.5-0.5z" fill="#815087"></path>
<path d="M16 11.5c0 0.827-0.673 1.5-1.5 1.5-0.195 0-0.382-0.038-0.553-0.106-0.173 0.637-0.756 1.106-1.447 1.106-0.195 0-0.382-0.038-0.553-0.106-0.174 0.637-0.756 1.106-1.447 1.106-0.175 0-0.344-0.030-0.5-0.086v2.586c0 0.827-0.673 1.5-1.5 1.5s-1.5-0.673-1.5-1.5v-5.966l-1.406 1.113c-0.304 0.241-0.695 0.361-1.098 0.339s-0.779-0.186-1.053-0.46c-0.581-0.581-0.583-1.532-0.003-2.12l3.479-3.523c-0.54-0.227-0.919-0.762-0.919-1.383v-2c0-0.827 0.673-1.5 1.5-1.5h7c0.827 0 1.5 0.673 1.5 1.5v2c0 0.541-0.288 1.016-0.719 1.28 0.328 0.636 0.719 1.798 0.719 3.72v1zM4.15 11.818c0.207 0.207 0.592 0.227 0.823 0.044l2.216-1.754c0.15-0.119 0.355-0.142 0.528-0.058s0.282 0.258 0.282 0.45v7c0 0.276 0.224 0.5 0.5 0.5s0.5-0.224 0.5-0.5v-5c0-0.276 0.224-0.5 0.5-0.5s0.5 0.224 0.5 0.5v1c0 0.276 0.224 0.5 0.5 0.5s0.5-0.224 0.5-0.5v-1c0-0.276 0.224-0.5 0.5-0.5s0.5 0.224 0.5 0.5c0 0.276 0.224 0.5 0.5 0.5s0.5-0.224 0.5-0.5v-1c0-0.276 0.224-0.5 0.5-0.5s0.5 0.224 0.5 0.5c0 0.276 0.224 0.5 0.5 0.5s0.5-0.224 0.5-0.5v-1c0-2.102-0.516-3.139-0.748-3.5h-6.043l-4.057 4.108c-0.192 0.194-0.192 0.519-0.002 0.71zM15 3.5c0-0.276-0.224-0.5-0.5-0.5h-7c-0.276 0-0.5 0.224-0.5 0.5v2c0 0.276 0.224 0.5 0.5 0.5h7c0.276 0 0.5-0.224 0.5-0.5v-2z" fill="#815087"></path>
</svg>
