<?xml version="1.0" encoding="utf-8"?>
<!-- Generated by IcoMoon.io -->
<!DOCTYPE svg PUBLIC "-//W3C//DTD SVG 1.1//EN" "http://www.w3.org/Graphics/SVG/1.1/DTD/svg11.dtd">
<svg version="1.1" xmlns="http://www.w3.org/2000/svg" xmlns:xlink="http://www.w3.org/1999/xlink" width="20" height="20" viewBox="0 0 20 20">
<path d="M0.5 12c-0.12 0-0.24-0.043-0.335-0.129-0.205-0.185-0.221-0.501-0.035-0.706l8.829-9.758c0.274-0.303 0.644-0.47 1.042-0.47 0 0 0 0 0 0 0.397 0 0.767 0.167 1.042 0.47l8.829 9.758c0.185 0.205 0.169 0.521-0.035 0.706s-0.521 0.169-0.706-0.035l-8.829-9.758c-0.082-0.091-0.189-0.141-0.3-0.141s-0.218 0.050-0.3 0.141l-8.829 9.758c-0.099 0.109-0.235 0.165-0.371 0.165z" fill="#ffffff"></path>
<path d="M15.5 20h-11c-0.827 0-1.5-0.673-1.5-1.5v-8c0-0.276 0.224-0.5 0.5-0.5s0.5 0.224 0.5 0.5v8c0 0.276 0.224 0.5 0.5 0.5h11c0.276 0 0.5-0.224 0.5-0.5v-8c0-0.276 0.224-0.5 0.5-0.5s0.5 0.224 0.5 0.5v8c0 0.827-0.673 1.5-1.5 1.5z" fill="#ffffff"></path>
</svg>
