<?xml version="1.0" encoding="utf-8"?>
<!-- Generated by IcoMoon.io -->
<!DOCTYPE svg PUBLIC "-//W3C//DTD SVG 1.1//EN" "http://www.w3.org/Graphics/SVG/1.1/DTD/svg11.dtd">
<svg version="1.1" xmlns="http://www.w3.org/2000/svg" xmlns:xlink="http://www.w3.org/1999/xlink" width="20" height="20" viewBox="0 0 20 20">
<path d="M19.572 0.428c-0.28-0.28-0.655-0.421-1.117-0.421-0.753 0-1.765 0.394-3.021 1.174-0.402-0.425-1.167-1.077-2.131-1.155-0.769-0.062-1.495 0.241-2.157 0.903-1.405 1.405-2.097 3.121-2.555 4.256-0.156 0.386-0.349 0.866-0.445 0.965-0.033 0.033-0.132 0.132-0.304-0.013-0.196-0.185-0.505-0.181-0.696 0.010-0.195 0.195-0.195 0.512 0 0.707 0.082 0.082 0.293 0.241 0.562 0.316 0.108 0.030 0.216 0.045 0.322 0.045 0.127 0 0.251-0.022 0.369-0.065-0.137 0.141-0.274 0.282-0.411 0.425-3.517 3.673-7.46 8.713-7.982 11.842-0.027 0.159 0.025 0.322 0.14 0.436 0.095 0.095 0.222 0.146 0.354 0.146 0.027 0 0.055-0.002 0.082-0.007 1.308-0.218 3.032-1.046 5.125-2.46 1.852-1.251 3.906-2.908 5.94-4.791 1.984-1.837 3.794-3.742 5.235-5.511 1.076-1.321 2.458-3.208 2.934-4.692 0.301-0.939 0.219-1.649-0.244-2.112zM11.854 1.635c0.45-0.45 0.896-0.651 1.365-0.614 0.561 0.044 1.053 0.418 1.365 0.72-0.247 0.172-0.501 0.355-0.763 0.552-1.424 1.069-3.040 2.488-4.65 4.081 0.107-0.218 0.216-0.488 0.349-0.816 0.427-1.060 1.073-2.662 2.334-3.923zM3.036 15.243l1.722 1.722c-1.365 0.892-2.584 1.526-3.57 1.847 0.322-0.987 0.958-2.206 1.848-3.569zM10.969 12.009c-1.876 1.736-3.71 3.228-5.367 4.386l-1.995-1.995c1.321-1.892 3.071-4.008 5.105-6.132 2.362-2.467 4.695-4.505 6.562-5.787l2.244 2.244c-1.431 2.086-3.786 4.726-6.549 7.284zM18.864 2.235c-0.148 0.462-0.418 1.013-0.791 1.631l-1.941-1.941c0.978-0.591 1.78-0.918 2.324-0.918 0.281 0 0.378 0.097 0.41 0.128 0.232 0.232 0.099 0.789-0.001 1.1z" fill="#ffffff"></path>
</svg>
