<?xml version="1.0" encoding="utf-8"?>
<!-- Generated by IcoMoon.io -->
<!DOCTYPE svg PUBLIC "-//W3C//DTD SVG 1.1//EN" "http://www.w3.org/Graphics/SVG/1.1/DTD/svg11.dtd">
<svg version="1.1" xmlns="http://www.w3.org/2000/svg" xmlns:xlink="http://www.w3.org/1999/xlink" width="20" height="20" viewBox="0 0 20 20">
<path d="M18.5 5h-7.5c-0.086 0-0.238-0.094-0.276-0.171l-0.553-1.106c-0.206-0.413-0.71-0.724-1.171-0.724h-7c-0.461 0-0.965 0.311-1.171 0.724l-0.553 1.106c-0.158 0.315-0.276 0.818-0.276 1.171v10.5c0 0.827 0.673 1.5 1.5 1.5h17c0.827 0 1.5-0.673 1.5-1.5v-10c0-0.827-0.673-1.5-1.5-1.5zM19 16.5c0 0.276-0.224 0.5-0.5 0.5h-17c-0.276 0-0.5-0.224-0.5-0.5v-10.5c0-0.196 0.083-0.548 0.171-0.724l0.553-1.106c0.038-0.077 0.191-0.171 0.276-0.171h7c0.086 0 0.238 0.094 0.276 0.171l0.553 1.106c0.206 0.413 0.71 0.724 1.171 0.724h7.5c0.276 0 0.5 0.224 0.5 0.5v10z" fill="#ffffff"></path>
</svg>
