<?xml version="1.0" encoding="utf-8"?>
<!-- Generated by IcoMoon.io -->
<!DOCTYPE svg PUBLIC "-//W3C//DTD SVG 1.1//EN" "http://www.w3.org/Graphics/SVG/1.1/DTD/svg11.dtd">
<svg version="1.1" xmlns="http://www.w3.org/2000/svg" xmlns:xlink="http://www.w3.org/1999/xlink" width="20" height="20" viewBox="0 0 20 20">
<path d="M5.5 17h-0.5v-9h0.5c0.276 0 0.5-0.224 0.5-0.5s-0.224-0.5-0.5-0.5h-4c-0.276 0-0.5 0.224-0.5 0.5s0.224 0.5 0.5 0.5h0.5v9h-0.5c-0.276 0-0.5 0.224-0.5 0.5s0.224 0.5 0.5 0.5h4c0.276 0 0.5-0.224 0.5-0.5s-0.224-0.5-0.5-0.5zM4 17h-1v-9h1v9z" fill="#ffffff"></path>
<path d="M11.5 17h-0.5v-9h0.5c0.276 0 0.5-0.224 0.5-0.5s-0.224-0.5-0.5-0.5h-4c-0.276 0-0.5 0.224-0.5 0.5s0.224 0.5 0.5 0.5h0.5v9h-0.5c-0.276 0-0.5 0.224-0.5 0.5s0.224 0.5 0.5 0.5h4c0.276 0 0.5-0.224 0.5-0.5s-0.224-0.5-0.5-0.5zM10 17h-1v-9h1v9z" fill="#ffffff"></path>
<path d="M17.5 17h-0.5v-9h0.5c0.276 0 0.5-0.224 0.5-0.5s-0.224-0.5-0.5-0.5h-4c-0.276 0-0.5 0.224-0.5 0.5s0.224 0.5 0.5 0.5h0.5v9h-0.5c-0.276 0-0.5 0.224-0.5 0.5s0.224 0.5 0.5 0.5h4c0.276 0 0.5-0.224 0.5-0.5s-0.224-0.5-0.5-0.5zM16 17h-1v-9h1v9z" fill="#ffffff"></path>
<path d="M18.5 20h-18c-0.276 0-0.5-0.224-0.5-0.5s0.224-0.5 0.5-0.5h18c0.276 0 0.5 0.224 0.5 0.5s-0.224 0.5-0.5 0.5z" fill="#ffffff"></path>
<path d="M17.5 6h-16c-0.223 0-0.419-0.148-0.481-0.362s0.026-0.444 0.216-0.562l8-5c0.162-0.101 0.368-0.101 0.53 0l8 5c0.189 0.118 0.277 0.347 0.216 0.562s-0.258 0.362-0.481 0.362zM3.243 5h12.513l-6.257-3.91-6.257 3.91z" fill="#ffffff"></path>
</svg>
