<?xml version="1.0" encoding="utf-8"?>
<!-- Generated by IcoMoon.io -->
<!DOCTYPE svg PUBLIC "-//W3C//DTD SVG 1.1//EN" "http://www.w3.org/Graphics/SVG/1.1/DTD/svg11.dtd">
<svg version="1.1" xmlns="http://www.w3.org/2000/svg" xmlns:xlink="http://www.w3.org/1999/xlink" width="20" height="20" viewBox="0 0 20 20">
<path d="M4.5 13c0.924 0 1.783-0.28 2.499-0.759-1.297 2.245-3.725 3.759-6.499 3.759-0.276 0-0.5 0.224-0.5 0.5s0.224 0.5 0.5 0.5c2.27 0 4.405-0.884 6.010-2.49s2.49-3.74 2.49-6.010c0-2.481-2.019-4.5-4.5-4.5s-4.5 2.019-4.5 4.5 2.019 4.5 4.5 4.5zM4.5 5c1.93 0 3.5 1.57 3.5 3.5 0 0.030-0.001 0.060-0.001 0.090-0.048 1.888-1.599 3.41-3.499 3.41-1.93 0-3.5-1.57-3.5-3.5s1.57-3.5 3.5-3.5z" fill="#ffffff"></path>
<path d="M11.5 16c-0.276 0-0.5 0.224-0.5 0.5s0.224 0.5 0.5 0.5c2.27 0 4.405-0.884 6.010-2.49s2.49-3.74 2.49-6.010c0-2.481-2.019-4.5-4.5-4.5s-4.5 2.019-4.5 4.5 2.019 4.5 4.5 4.5c0.924 0 1.783-0.28 2.499-0.759-1.297 2.245-3.725 3.759-6.499 3.759zM15.5 12c-1.93 0-3.5-1.57-3.5-3.5s1.57-3.5 3.5-3.5 3.5 1.57 3.5 3.5c0 0.030-0.001 0.060-0.001 0.090-0.048 1.888-1.599 3.41-3.499 3.41z" fill="#ffffff"></path>
</svg>
