<?xml version="1.0" encoding="utf-8"?>
<!-- Generated by IcoMoon.io -->
<!DOCTYPE svg PUBLIC "-//W3C//DTD SVG 1.1//EN" "http://www.w3.org/Graphics/SVG/1.1/DTD/svg11.dtd">
<svg version="1.1" xmlns="http://www.w3.org/2000/svg" xmlns:xlink="http://www.w3.org/1999/xlink" width="20" height="20" viewBox="0 0 20 20">
<path d="M9.5 20c-2.538 0-4.923-0.988-6.718-2.782s-2.782-4.18-2.782-6.717c0-2.538 0.988-4.923 2.782-6.718s4.18-2.783 6.718-2.783c2.538 0 4.923 0.988 6.718 2.783s2.782 4.18 2.782 6.718-0.988 4.923-2.782 6.717c-1.794 1.794-4.18 2.782-6.718 2.782zM9.5 2c-4.687 0-8.5 3.813-8.5 8.5s3.813 8.5 8.5 8.5 8.5-3.813 8.5-8.5-3.813-8.5-8.5-8.5z" fill="#ffffff"></path>
<path d="M14 11h-9c-1.103 0-2 0.897-2 2s0.897 2 2 2h9c1.103 0 2-0.897 2-2s-0.897-2-2-2zM10 12h2v2h-2v-2zM9 14h-2l-0-2h2v2zM4 13c0-0.551 0.449-1 1-1h1l0 2h-1c-0.551 0-1-0.449-1-1zM14 14h-1v-2h1c0.551 0 1 0.449 1 1s-0.449 1-1 1z" fill="#ffffff"></path>
<path d="M7.853 6.854c0.037-0.037 0.069-0.080 0.094-0.13 0.123-0.247 0.023-0.547-0.224-0.671l-2-1c-0.247-0.123-0.547-0.023-0.671 0.224s-0.023 0.547 0.224 0.671l0.49 0.245c-0.457 0.257-0.767 0.747-0.767 1.308 0 0.827 0.673 1.5 1.5 1.5s1.5-0.673 1.5-1.5c0-0.231-0.053-0.451-0.147-0.646zM6.5 8c-0.276 0-0.5-0.224-0.5-0.5s0.224-0.5 0.5-0.5 0.5 0.224 0.5 0.5-0.224 0.5-0.5 0.5z" fill="#ffffff"></path>
<path d="M13.233 6.192l0.49-0.245c0.247-0.123 0.347-0.424 0.224-0.671s-0.424-0.347-0.671-0.224l-2 1c-0.247 0.123-0.347 0.424-0.224 0.671 0.025 0.049 0.057 0.093 0.094 0.13-0.094 0.196-0.147 0.415-0.147 0.646 0 0.827 0.673 1.5 1.5 1.5s1.5-0.673 1.5-1.5c0-0.561-0.31-1.050-0.767-1.308zM12.5 8c-0.276 0-0.5-0.224-0.5-0.5s0.224-0.5 0.5-0.5 0.5 0.224 0.5 0.5-0.224 0.5-0.5 0.5z" fill="#ffffff"></path>
</svg>
