<?xml version="1.0" encoding="utf-8"?>
<!-- Generated by IcoMoon.io -->
<!DOCTYPE svg PUBLIC "-//W3C//DTD SVG 1.1//EN" "http://www.w3.org/Graphics/SVG/1.1/DTD/svg11.dtd">
<svg version="1.1" xmlns="http://www.w3.org/2000/svg" xmlns:xlink="http://www.w3.org/1999/xlink" width="20" height="20" viewBox="0 0 20 20">
<path d="M19.854 8.646c-0.195-0.195-0.512-0.195-0.707 0l-1.149 1.149c-0.051-2.060-0.878-3.99-2.341-5.452-0.017-0.017-0.033-0.033-0.050-0.049l1.271-1.467c0.181-0.209 0.158-0.524-0.050-0.705s-0.524-0.158-0.705 0.050l-1.27 1.466c-1.387-1.062-3.075-1.638-4.852-1.638-2.974 0-5.686 1.635-7.077 4.266-0.129 0.244-0.036 0.547 0.208 0.676s0.547 0.036 0.676-0.208c1.217-2.303 3.59-3.734 6.193-3.734 1.571 0 3.024 0.521 4.193 1.398l-9.142 10.548c-1.221-1.221-1.993-2.89-2.048-4.736l1.143 1.143c0.098 0.098 0.226 0.146 0.354 0.146s0.256-0.049 0.354-0.146c0.195-0.195 0.195-0.512 0-0.707l-2-2c-0.195-0.195-0.512-0.195-0.707 0l-2 2c-0.195 0.195-0.195 0.512 0 0.707s0.512 0.195 0.707 0l1.149-1.149c0.051 2.060 0.878 3.99 2.341 5.452 0.017 0.017 0.033 0.033 0.050 0.049l-1.271 1.467c-0.181 0.209-0.158 0.524 0.050 0.705 0.095 0.082 0.211 0.122 0.327 0.122 0.14 0 0.279-0.058 0.378-0.173l1.27-1.466c1.387 1.062 3.075 1.638 4.852 1.638 2.974 0 5.686-1.635 7.077-4.266 0.129-0.244 0.036-0.547-0.208-0.676s-0.547-0.036-0.676 0.208c-1.217 2.303-3.59 3.734-6.193 3.734-1.572 0-3.024-0.521-4.193-1.398l9.142-10.548c1.221 1.221 1.993 2.89 2.048 4.736l-1.143-1.143c-0.195-0.195-0.512-0.195-0.707 0s-0.195 0.512 0 0.707l2 2c0.098 0.098 0.226 0.146 0.354 0.146s0.256-0.049 0.354-0.146l2-2c0.195-0.195 0.195-0.512 0-0.707z" fill="#ffffff"></path>
</svg>
