<?xml version="1.0" encoding="utf-8"?>
<!-- Generated by IcoMoon.io -->
<!DOCTYPE svg PUBLIC "-//W3C//DTD SVG 1.1//EN" "http://www.w3.org/Graphics/SVG/1.1/DTD/svg11.dtd">
<svg version="1.1" xmlns="http://www.w3.org/2000/svg" xmlns:xlink="http://www.w3.org/1999/xlink" width="20" height="20" viewBox="0 0 20 20">
<path d="M19.5 18h-8.512c-0.126-2.65-1.247-5.146-3.139-7h1.652c0.276 0 0.5-0.224 0.5-0.5s-0.224-0.5-0.5-0.5h-3c-0.036 0-0.071 0.004-0.105 0.011l4.529-7.246c0.146-0.234 0.075-0.543-0.159-0.689s-0.543-0.075-0.689 0.159l-10 16c-0.096 0.154-0.101 0.348-0.013 0.507s0.256 0.258 0.437 0.258h19c0.276 0 0.5-0.224 0.5-0.5s-0.224-0.5-0.5-0.5zM6 10.643v2.857c0 0.276 0.224 0.5 0.5 0.5s0.5-0.224 0.5-0.5v-1.928c1.79 1.68 2.858 3.98 2.987 6.428h-8.585l4.598-7.357z" fill="#ffffff"></path>
<path d="M15.5 12c-0.827 0-1.5-0.673-1.5-1.5s0.673-1.5 1.5-1.5c0.276 0 0.5-0.224 0.5-0.5s-0.224-0.5-0.5-0.5c-0.817 0-1.544 0.394-2 1.002-0.456-0.608-1.183-1.002-2-1.002-0.276 0-0.5 0.224-0.5 0.5s0.224 0.5 0.5 0.5c0.827 0 1.5 0.673 1.5 1.5s-0.673 1.5-1.5 1.5c-0.276 0-0.5 0.224-0.5 0.5s0.224 0.5 0.5 0.5c0.817 0 1.544-0.394 2-1.002 0.456 0.608 1.183 1.002 2 1.002 0.276 0 0.5-0.224 0.5-0.5s-0.224-0.5-0.5-0.5z" fill="#ffffff"></path>
<path d="M18.5 9c-0.827 0-1.5-0.673-1.5-1.5s0.673-1.5 1.5-1.5 1.5 0.673 1.5 1.5-0.673 1.5-1.5 1.5zM18.5 7c-0.276 0-0.5 0.224-0.5 0.5s0.224 0.5 0.5 0.5 0.5-0.224 0.5-0.5-0.224-0.5-0.5-0.5z" fill="#ffffff"></path>
</svg>
