<?xml version="1.0" encoding="utf-8"?>
<!-- Generated by IcoMoon.io -->
<!DOCTYPE svg PUBLIC "-//W3C//DTD SVG 1.1//EN" "http://www.w3.org/Graphics/SVG/1.1/DTD/svg11.dtd">
<svg version="1.1" xmlns="http://www.w3.org/2000/svg" xmlns:xlink="http://www.w3.org/1999/xlink" width="20" height="20" viewBox="0 0 20 20">
<path d="M9 10h1v1h-1v-1z" fill="#838383"></path>
<path d="M11 10h1v1h-1v-1z" fill="#838383"></path>
<path d="M13 10h1v1h-1v-1z" fill="#838383"></path>
<path d="M15 10h1v1h-1v-1z" fill="#838383"></path>
<path d="M9 13h1v1h-1v-1z" fill="#838383"></path>
<path d="M11 13h1v1h-1v-1z" fill="#838383"></path>
<path d="M13 13h1v1h-1v-1z" fill="#838383"></path>
<path d="M15 13h1v1h-1v-1z" fill="#838383"></path>
<path d="M9 16h1v1h-1v-1z" fill="#838383"></path>
<path d="M11 16h1v1h-1v-1z" fill="#838383"></path>
<path d="M13 16h1v1h-1v-1z" fill="#838383"></path>
<path d="M15 16h1v1h-1v-1z" fill="#838383"></path>
<path d="M17.5 7h-0.5v-2.5c0-0.133-0.053-0.26-0.146-0.354l-1.854-1.854v-1.793c0-0.276-0.224-0.5-0.5-0.5s-0.5 0.224-0.5 0.5v1.793l-1.854 1.854c-0.094 0.094-0.146 0.221-0.146 0.354v0.5h-2v-2.5c0-0.276-0.224-0.5-0.5-0.5h-8c-0.276 0-0.5 0.224-0.5 0.5v17c0 0.276 0.224 0.5 0.5 0.5h16c0.276 0 0.5-0.224 0.5-0.5v-12c0-0.276-0.224-0.5-0.5-0.5zM13 4.707l1.5-1.5 1.5 1.5v2.293h-1v-1.5c0-0.276-0.224-0.5-0.5-0.5h-1.5v-0.293zM14 6v1h-4v-1h4zM7 7.5v11.5h-5v-16h7v4h-1.5c-0.276 0-0.5 0.224-0.5 0.5zM17 19h-9v-11h9v11z" fill="#838383"></path>
<path d="M7 4h1v2h-1v-2z" fill="#838383"></path>
<path d="M5 4h1v2h-1v-2z" fill="#838383"></path>
<path d="M3 4h1v2h-1v-2z" fill="#838383"></path>
<path d="M3 7h1v2h-1v-2z" fill="#838383"></path>
<path d="M5 7h1v2h-1v-2z" fill="#838383"></path>
<path d="M3 10h1v2h-1v-2z" fill="#838383"></path>
<path d="M5 10h1v2h-1v-2z" fill="#838383"></path>
<path d="M3 13h1v2h-1v-2z" fill="#838383"></path>
<path d="M5 13h1v2h-1v-2z" fill="#838383"></path>
<path d="M3 16h1v2h-1v-2z" fill="#838383"></path>
<path d="M5 16h1v2h-1v-2z" fill="#838383"></path>
</svg>
