<?xml version="1.0" encoding="utf-8"?>
<!-- Generated by IcoMoon.io -->
<!DOCTYPE svg PUBLIC "-//W3C//DTD SVG 1.1//EN" "http://www.w3.org/Graphics/SVG/1.1/DTD/svg11.dtd">
<svg version="1.1" xmlns="http://www.w3.org/2000/svg" xmlns:xlink="http://www.w3.org/1999/xlink" width="20" height="20" viewBox="0 0 20 20">
<path d="M17.5 20h-16c-0.827 0-1.5-0.673-1.5-1.5v-3c0-0.627 0.22-1.557 0.5-2.118l2.106-4.211c0.328-0.657 1.16-1.171 1.894-1.171 0.276 0 0.5 0.224 0.5 0.5s-0.224 0.5-0.5 0.5c-0.362 0-0.838 0.295-1 0.618l-2.106 4.211c-0.21 0.42-0.394 1.201-0.394 1.671v3c0 0.276 0.224 0.5 0.5 0.5h16c0.276 0 0.5-0.224 0.5-0.5v-3c0-0.47-0.184-1.251-0.394-1.671l-2.106-4.211c-0.162-0.323-0.638-0.618-1-0.618-0.276 0-0.5-0.224-0.5-0.5s0.224-0.5 0.5-0.5c0.734 0 1.566 0.514 1.894 1.171l2.106 4.211c0.28 0.561 0.5 1.491 0.5 2.118v3c0 0.827-0.673 1.5-1.5 1.5z" fill="#838383"></path>
<path d="M16.5 18h-1c-0.276 0-0.5-0.224-0.5-0.5s0.224-0.5 0.5-0.5h1c0.276 0 0.5 0.224 0.5 0.5s-0.224 0.5-0.5 0.5z" fill="#838383"></path>
<path d="M16.5 16h-14c-0.276 0-0.5-0.224-0.5-0.5s0.224-0.5 0.5-0.5h14c0.276 0 0.5 0.224 0.5 0.5s-0.224 0.5-0.5 0.5z" fill="#838383"></path>
<path d="M12.854 7.646c-0.195-0.195-0.512-0.195-0.707 0l-2.146 2.146v-8.293c0-0.276-0.224-0.5-0.5-0.5s-0.5 0.224-0.5 0.5v8.293l-2.146-2.146c-0.195-0.195-0.512-0.195-0.707 0s-0.195 0.512 0 0.707l3 3c0.098 0.098 0.226 0.146 0.354 0.146s0.256-0.049 0.354-0.146l3-3c0.195-0.195 0.195-0.512 0-0.707z" fill="#838383"></path>
</svg>
