<?xml version="1.0" encoding="utf-8"?>
<!-- Generated by IcoMoon.io -->
<!DOCTYPE svg PUBLIC "-//W3C//DTD SVG 1.1//EN" "http://www.w3.org/Graphics/SVG/1.1/DTD/svg11.dtd">
<svg version="1.1" xmlns="http://www.w3.org/2000/svg" xmlns:xlink="http://www.w3.org/1999/xlink" width="20" height="20" viewBox="0 0 20 20">
<path d="M18.5 18h-17c-0.827 0-1.5-0.673-1.5-1.5v-10.5c0-0.352 0.119-0.856 0.276-1.171l0.553-1.106c0.206-0.413 0.71-0.724 1.171-0.724h7c0.461 0 0.965 0.311 1.171 0.724l0.553 1.106c0.038 0.077 0.191 0.171 0.276 0.171h7.5c0.827 0 1.5 0.673 1.5 1.5v10c0 0.827-0.673 1.5-1.5 1.5zM2 4c-0.086 0-0.238 0.094-0.276 0.171l-0.553 1.106c-0.088 0.176-0.171 0.527-0.171 0.724v10.5c0 0.276 0.224 0.5 0.5 0.5h17c0.276 0 0.5-0.224 0.5-0.5v-10c0-0.276-0.224-0.5-0.5-0.5h-7.5c-0.461 0-0.965-0.311-1.171-0.724l-0.553-1.106c-0.038-0.077-0.191-0.171-0.276-0.171h-7z" fill="#838383"></path>
<path d="M12.5 13c0.827 0 1.5-0.673 1.5-1.5s-0.673-1.5-1.5-1.5-1.5 0.673-1.5 1.5 0.673 1.5 1.5 1.5zM12.5 11c0.276 0 0.5 0.224 0.5 0.5s-0.224 0.5-0.5 0.5-0.5-0.224-0.5-0.5 0.224-0.5 0.5-0.5z" fill="#838383"></path>
<path d="M15.5 8h-11c-0.276 0-0.5 0.224-0.5 0.5v6c0 0.276 0.224 0.5 0.5 0.5h11c0.276 0 0.5-0.224 0.5-0.5v-6c0-0.276-0.224-0.5-0.5-0.5zM5 12.675l1.266-1.582c0.073-0.091 0.164-0.142 0.259-0.144s0.189 0.044 0.266 0.131l2.596 2.92h-4.387v-1.325zM15 14h-4.275l-3.187-3.585c-0.272-0.306-0.651-0.476-1.039-0.466s-0.758 0.199-1.014 0.519l-0.485 0.606v-2.075h10v5z" fill="#838383"></path>
</svg>
