<?xml version="1.0" encoding="utf-8"?>
<!-- Generated by IcoMoon.io -->
<!DOCTYPE svg PUBLIC "-//W3C//DTD SVG 1.1//EN" "http://www.w3.org/Graphics/SVG/1.1/DTD/svg11.dtd">
<svg version="1.1" xmlns="http://www.w3.org/2000/svg" xmlns:xlink="http://www.w3.org/1999/xlink" width="20" height="20" viewBox="0 0 20 20">
<path d="M18.5 1h-17c-0.276 0-0.5 0.224-0.5 0.5v18c0 0.276 0.224 0.5 0.5 0.5h17c0.276 0 0.5-0.224 0.5-0.5v-18c0-0.276-0.224-0.5-0.5-0.5zM4 7h-2v-2h2v2zM4 8v2h-2v-2h2zM4 11v2h-2v-2h2zM2 14h2v2h-2v-2zM5 2h10v17h-10v-17zM16 11h2v2h-2v-2zM16 10v-2h2v2h-2zM16 7v-2h2v2h-2zM16 14h2v2h-2v-2zM18 4h-2v-2h2v2zM4 2v2h-2v-2h2zM2 17h2v2h-2v-2zM16 19v-2h2v2h-2z" fill="#838383"></path>
</svg>
