<?xml version="1.0" encoding="utf-8"?>
<!-- Generated by IcoMoon.io -->
<!DOCTYPE svg PUBLIC "-//W3C//DTD SVG 1.1//EN" "http://www.w3.org/Graphics/SVG/1.1/DTD/svg11.dtd">
<svg version="1.1" xmlns="http://www.w3.org/2000/svg" xmlns:xlink="http://www.w3.org/1999/xlink" width="20" height="20" viewBox="0 0 20 20">
<path d="M8.5 20c-2.27 0-4.405-0.884-6.010-2.49s-2.49-3.74-2.49-6.010c0-2.27 0.884-4.405 2.49-6.010s3.74-2.49 6.010-2.49c0.276 0 0.5 0.224 0.5 0.5s-0.224 0.5-0.5 0.5c-4.136 0-7.5 3.364-7.5 7.5s3.364 7.5 7.5 7.5c4.136 0 7.5-3.364 7.5-7.5 0-0.276 0.224-0.5 0.5-0.5s0.5 0.224 0.5 0.5c0 2.27-0.884 4.405-2.49 6.010s-3.74 2.49-6.010 2.49z" fill="#838383"></path>
<path d="M18.5 10h-8c-0.276 0-0.5-0.224-0.5-0.5v-8c0-0.276 0.224-0.5 0.5-0.5 2.27 0 4.405 0.884 6.010 2.49s2.49 3.74 2.49 6.010c0 0.276-0.224 0.5-0.5 0.5zM11 9h6.984c-0.247-3.738-3.246-6.736-6.984-6.984v6.984z" fill="#838383"></path>
</svg>
