<?xml version="1.0" encoding="utf-8"?>
<!-- Generated by IcoMoon.io -->
<!DOCTYPE svg PUBLIC "-//W3C//DTD SVG 1.1//EN" "http://www.w3.org/Graphics/SVG/1.1/DTD/svg11.dtd">
<svg version="1.1" xmlns="http://www.w3.org/2000/svg" xmlns:xlink="http://www.w3.org/1999/xlink" width="20" height="20" viewBox="0 0 20 20">
<path d="M10.5 16c-0.827 0-1.5-0.673-1.5-1.5s0.673-1.5 1.5-1.5c0.827 0 1.5 0.673 1.5 1.5s-0.673 1.5-1.5 1.5zM10.5 14c-0.276 0-0.5 0.224-0.5 0.5s0.224 0.5 0.5 0.5 0.5-0.224 0.5-0.5-0.224-0.5-0.5-0.5z" fill="#838383"></path>
<path d="M13.947 12.968c-0.171 0-0.338-0.088-0.431-0.246-0.628-1.062-1.783-1.722-3.016-1.722-0.276 0-0.5-0.224-0.5-0.5s0.224-0.5 0.5-0.5c0.797 0 1.58 0.211 2.264 0.61 0.664 0.387 1.221 0.942 1.612 1.603 0.141 0.238 0.062 0.544-0.176 0.685-0.080 0.047-0.167 0.070-0.254 0.070z" fill="#838383"></path>
<path d="M16.107 10.808c-0.152 0-0.302-0.069-0.401-0.2-1.241-1.657-3.139-2.608-5.206-2.608-0.276 0-0.5-0.224-0.5-0.5s0.224-0.5 0.5-0.5c1.202 0 2.35 0.276 3.412 0.82 1.013 0.518 1.91 1.275 2.594 2.189 0.166 0.221 0.121 0.534-0.1 0.7-0.090 0.067-0.195 0.1-0.299 0.1z" fill="#838383"></path>
<path d="M18.243 8.671c-0.145 0-0.288-0.063-0.387-0.183-1.814-2.217-4.495-3.488-7.356-3.488-0.64 0-1.279 0.064-1.901 0.19-0.271 0.055-0.535-0.12-0.589-0.391s0.12-0.535 0.391-0.589c0.687-0.139 1.393-0.21 2.099-0.21 3.162 0 6.125 1.405 8.13 3.855 0.175 0.214 0.143 0.529-0.070 0.704-0.093 0.076-0.205 0.113-0.316 0.113z" fill="#838383"></path>
<path d="M4.5 5c-2.481 0-4.5 2.019-4.5 4.5s2.019 4.5 4.5 4.5 4.5-2.019 4.5-4.5-2.019-4.5-4.5-4.5zM4.5 6c0.963 0 1.836 0.391 2.47 1.023l-5.541 4.155c-0.274-0.498-0.429-1.070-0.429-1.678 0-1.93 1.57-3.5 3.5-3.5zM4.5 13c-0.963 0-1.836-0.391-2.47-1.023l5.541-4.155c0.273 0.498 0.429 1.070 0.429 1.678 0 1.93-1.57 3.5-3.5 3.5z" fill="#838383"></path>
</svg>
