<?xml version="1.0" encoding="utf-8"?>
<!-- Generated by IcoMoon.io -->
<!DOCTYPE svg PUBLIC "-//W3C//DTD SVG 1.1//EN" "http://www.w3.org/Graphics/SVG/1.1/DTD/svg11.dtd">
<svg version="1.1" xmlns="http://www.w3.org/2000/svg" xmlns:xlink="http://www.w3.org/1999/xlink" width="20" height="20" viewBox="0 0 20 20">
<path d="M17.9 12.199c-0.958-1.275-2.213-2.332-3.63-3.055-1.486-0.759-3.091-1.144-4.77-1.144-2.834 0-5.53 1.141-7.5 3.152v-2.652c0-0.276-0.224-0.5-0.5-0.5s-0.5 0.224-0.5 0.5v4c0 0.276 0.224 0.5 0.5 0.5h4c0.276 0 0.5-0.224 0.5-0.5s-0.224-0.5-0.5-0.5h-2.928c1.794-1.912 4.295-3 6.928-3 3.016 0 5.786 1.385 7.6 3.799 0.098 0.131 0.248 0.2 0.4 0.2 0.105 0 0.21-0.033 0.3-0.1 0.221-0.166 0.265-0.479 0.099-0.7z" fill="#838383"></path>
</svg>
