<?xml version="1.0" encoding="utf-8"?>
<!-- Generated by IcoMoon.io -->
<!DOCTYPE svg PUBLIC "-//W3C//DTD SVG 1.1//EN" "http://www.w3.org/Graphics/SVG/1.1/DTD/svg11.dtd">
<svg version="1.1" xmlns="http://www.w3.org/2000/svg" xmlns:xlink="http://www.w3.org/1999/xlink" width="20" height="20" viewBox="0 0 20 20">
<path d="M20 4.5v12c0 0.827-0.673 1.5-1.5 1.5h-10c-0.827 0-1.5-0.673-1.5-1.5v-4c0-0.276 0.224-0.5 0.5-0.5s0.5 0.224 0.5 0.5v4c0 0.276 0.224 0.5 0.5 0.5h10c0.276 0 0.5-0.224 0.5-0.5v-12c0-0.276-0.224-0.5-0.5-0.5h-10c-0.276 0-0.5 0.224-0.5 0.5v4c0 0.276-0.224 0.5-0.5 0.5s-0.5-0.224-0.5-0.5v-4c0-0.827 0.673-1.5 1.5-1.5h10c0.827 0 1.5 0.673 1.5 1.5z" fill="#838383"></path>
<path d="M3.646 7.147l-3 3c-0.195 0.195-0.195 0.512 0 0.707l3 3c0.195 0.195 0.512 0.195 0.707 0s0.195-0.512 0-0.707l-2.146-2.147h11.293c0.276 0 0.5-0.224 0.5-0.5s-0.224-0.5-0.5-0.5h-11.293l2.146-2.147c0.098-0.098 0.146-0.226 0.146-0.353s-0.049-0.256-0.146-0.353c-0.195-0.195-0.512-0.195-0.707 0z" fill="#838383"></path>
</svg>
