<?xml version="1.0" encoding="utf-8"?>
<!-- Generated by IcoMoon.io -->
<!DOCTYPE svg PUBLIC "-//W3C//DTD SVG 1.1//EN" "http://www.w3.org/Graphics/SVG/1.1/DTD/svg11.dtd">
<svg version="1.1" xmlns="http://www.w3.org/2000/svg" xmlns:xlink="http://www.w3.org/1999/xlink" width="20" height="20" viewBox="0 0 20 20">
<path d="M1 18.5v-16c0-0.827 0.673-1.5 1.5-1.5h1c0.827 0 1.5 0.673 1.5 1.5v6c0 0.276-0.224 0.5-0.5 0.5s-0.5-0.224-0.5-0.5v-6c0-0.276-0.224-0.5-0.5-0.5h-1c-0.276 0-0.5 0.224-0.5 0.5v16c0 0.276 0.224 0.5 0.5 0.5h1c0.276 0 0.5-0.224 0.5-0.5v-6c0-0.276 0.224-0.5 0.5-0.5s0.5 0.224 0.5 0.5v6c0 0.827-0.673 1.5-1.5 1.5h-1c-0.827 0-1.5-0.673-1.5-1.5z" fill="#838383"></path>
<path d="M13.646 15.854c-0.195-0.195-0.195-0.512 0-0.707l4.146-4.146h-14.293c-0.276 0-0.5-0.224-0.5-0.5s0.224-0.5 0.5-0.5h14.293l-4.146-4.146c-0.195-0.195-0.195-0.512 0-0.707s0.512-0.195 0.707 0l5 5c0.098 0.098 0.146 0.226 0.146 0.354s-0.049 0.256-0.146 0.354l-5 5c-0.195 0.195-0.512 0.195-0.707-0z" fill="#838383"></path>
</svg>
